<?xml version="1.0" encoding="UTF-8" standalone="no"?>
<svg
   xmlns:osb="http://www.openswatchbook.org/uri/2009/osb"
   xmlns:dc="http://purl.org/dc/elements/1.1/"
   xmlns:cc="http://creativecommons.org/ns#"
   xmlns:rdf="http://www.w3.org/1999/02/22-rdf-syntax-ns#"
   xmlns:svg="http://www.w3.org/2000/svg"
   xmlns="http://www.w3.org/2000/svg"
   xmlns:xlink="http://www.w3.org/1999/xlink"
   xmlns:sodipodi="http://sodipodi.sourceforge.net/DTD/sodipodi-0.dtd"
   xmlns:inkscape="http://www.inkscape.org/namespaces/inkscape"
   version="1.0"
   width="414"
   height="414"
   viewBox="0 0 331.2 331.2"
   preserveAspectRatio="xMidYMid meet"
   id="svg2"
   inkscape:version="0.91 r13725"
   sodipodi:docname="sequenzapython.svg">
  <defs
     id="defs16">
    <linearGradient
       inkscape:collect="always"
       id="linearGradient5318">
      <stop
         style="stop-color:#446ef9;stop-opacity:1"
         offset="0"
         id="stop5320" />
      <stop
         style="stop-color:#0008d2;stop-opacity:0"
         offset="1"
         id="stop5322" />
    </linearGradient>
    <linearGradient
       id="linearGradient5272">
      <stop
         id="stop5282"
         offset="0"
         style="stop-color:#78d734;stop-opacity:1" />
      <stop
         id="stop5280"
         offset="1"
         style="stop-color:#78d734;stop-opacity:0.49019608;" />
    </linearGradient>
    <linearGradient
       id="linearGradient5258"
       osb:paint="solid">
      <stop
         style="stop-color:#ffc239;stop-opacity:1;"
         offset="0"
         id="stop5260" />
    </linearGradient>
    <linearGradient
       inkscape:collect="always"
       id="linearGradient5238">
      <stop
         style="stop-color:#ffc239;stop-opacity:1;"
         offset="0"
         id="stop5240" />
      <stop
         style="stop-color:#ffc239;stop-opacity:0;"
         offset="1"
         id="stop5242" />
    </linearGradient>
    <linearGradient
       id="linearGradient5222"
       osb:paint="solid">
      <stop
         style="stop-color:#d5332e;stop-opacity:1;"
         offset="0"
         id="stop5224" />
    </linearGradient>
    <linearGradient
       id="linearGradient5216"
       osb:paint="solid">
      <stop
         style="stop-color:#d5332e;stop-opacity:1;"
         offset="0"
         id="stop5218" />
    </linearGradient>
    <linearGradient
       id="linearGradient3764"
       osb:paint="gradient">
      <stop
         id="stop3766"
         offset="0"
         style="stop-color:#b0e281;stop-opacity:1;" />
      <stop
         id="stop3768"
         offset="1"
         style="stop-color:#b0e281;stop-opacity:0;" />
    </linearGradient>
    <radialGradient
       inkscape:collect="always"
       xlink:href="#linearGradient5238"
       id="radialGradient5244"
       cx="208.50768"
       cy="207.11705"
       fx="208.50768"
       fy="207.11705"
       r="115.3562"
       gradientTransform="matrix(0.59261081,-0.5156253,0.91787415,1.0549175,-105.16361,96.137486)"
       gradientUnits="userSpaceOnUse" />
    <linearGradient
       inkscape:collect="always"
       xlink:href="#linearGradient5272"
       id="linearGradient5314"
       x1="138.64407"
       y1="104.17034"
       x2="151.64195"
       y2="128.43304"
       gradientUnits="userSpaceOnUse" />
    <linearGradient
       inkscape:collect="always"
       xlink:href="#linearGradient5318"
       id="linearGradient5338"
       x1="132.57838"
       y1="280.94153"
       x2="131.71185"
       y2="219.41821"
       gradientUnits="userSpaceOnUse" />
    <linearGradient
       inkscape:collect="always"
       id="linearGradient11301">
      <stop
         style="stop-color:#ffe052;stop-opacity:1"
         offset="0"
         id="stop11303" />
      <stop
         style="stop-color:#ffc331;stop-opacity:1"
         offset="1"
         id="stop11305" />
    </linearGradient>
    <linearGradient
       inkscape:collect="always"
       xlink:href="#linearGradient11301"
       id="linearGradient11307"
       x1="89.136749"
       y1="111.92053"
       x2="147.77737"
       y2="168.1012"
       gradientUnits="userSpaceOnUse" />
    <linearGradient
       inkscape:collect="always"
       id="linearGradient9515">
      <stop
         style="stop-color:#387eb8;stop-opacity:1"
         offset="0"
         id="stop9517" />
      <stop
         style="stop-color:#366994;stop-opacity:1"
         offset="1"
         id="stop9519" />
    </linearGradient>
    <linearGradient
       inkscape:collect="always"
       xlink:href="#linearGradient9515"
       id="linearGradient9521"
       x1="55.549179"
       y1="77.070274"
       x2="110.14919"
       y2="131.85291"
       gradientUnits="userSpaceOnUse" />
  </defs>
  <sodipodi:namedview
     pagecolor="#ffffff"
     bordercolor="#666666"
     borderopacity="1"
     objecttolerance="10"
     gridtolerance="10"
     guidetolerance="10"
     inkscape:pageopacity="0"
     inkscape:pageshadow="2"
     inkscape:window-width="1103"
     inkscape:window-height="799"
     id="namedview14"
     showgrid="false"
     inkscape:zoom="0.92322738"
     inkscape:cx="256.64879"
     inkscape:cy="255.625"
     inkscape:window-x="0"
     inkscape:window-y="0"
     inkscape:window-maximized="0"
     inkscape:current-layer="svg2" />
  <metadata
     id="metadata4">
Created by potrace 1.12, written by Peter Selinger 2001-2015
<rdf:RDF>
  <cc:Work
     rdf:about="">
    <dc:format>image/svg+xml</dc:format>
    <dc:type
       rdf:resource="http://purl.org/dc/dcmitype/StillImage" />
    <dc:title></dc:title>
  </cc:Work>
</rdf:RDF>
</metadata>
  <g
     transform="matrix(1.6125197,0,0,1.6125197,-613.27221,-287.62217)"
     id="layer1"
     inkscape:label="Calque 1">
    <g
       transform="translate(428.42338,184.2561)"
       id="g1894">
      <path
         id="path8615"
         d="M 99.75,67.46875 C 71.718268,67.468752 73.46875,79.625 73.46875,79.625 L 73.5,92.21875 l 26.75,0 0,3.78125 -37.375,0 c 0,0 -17.9375,-2.034276 -17.9375,26.25 -2e-6,28.28427 15.65625,27.28125 15.65625,27.28125 l 9.34375,0 0,-13.125 c 0,0 -0.503652,-15.65625 15.40625,-15.65625 15.9099,0 26.53125,0 26.53125,0 0,0 14.90625,0.24096 14.90625,-14.40625 0,-14.647206 0,-24.21875 0,-24.21875 0,-2e-6 2.26318,-14.65625 -27.03125,-14.65625 z M 85,75.9375 c 2.661429,-2e-6 4.8125,2.151071 4.8125,4.8125 2e-6,2.661429 -2.151071,4.8125 -4.8125,4.8125 -2.661429,2e-6 -4.8125,-2.151071 -4.8125,-4.8125 -2e-6,-2.661429 2.151071,-4.8125 4.8125,-4.8125 z"
         style="color:#000000;display:inline;overflow:visible;visibility:visible;opacity:1;fill:url(#linearGradient9521);fill-opacity:1;fill-rule:nonzero;stroke:none;stroke-width:1;stroke-linecap:butt;stroke-linejoin:miter;stroke-miterlimit:4;stroke-dasharray:none;stroke-dashoffset:0;stroke-opacity:1;marker:none;marker-start:none;marker-mid:none;marker-end:none"
         inkscape:connector-curvature="0" />
      <path
         style="color:#000000;display:inline;overflow:visible;visibility:visible;opacity:1;fill:url(#linearGradient11307);fill-opacity:1;fill-rule:nonzero;stroke:none;stroke-width:1;stroke-linecap:butt;stroke-linejoin:miter;stroke-miterlimit:4;stroke-dasharray:none;stroke-dashoffset:0;stroke-opacity:1;marker:none;marker-start:none;marker-mid:none;marker-end:none"
         d="m 100.5461,177.31485 c 28.03174,0 26.28125,-12.15625 26.28125,-12.15625 l -0.0312,-12.59375 -26.75,0 0,-3.78125 37.375,0 c 0,0 17.9375,2.03427 17.9375,-26.25001 10e-6,-28.284267 -15.65625,-27.281247 -15.65625,-27.281247 l -9.34375,0 0,13.124997 c 0,0 0.50366,15.65625 -15.40625,15.65625 -15.909902,0 -26.531252,0 -26.531252,0 0,0 -14.90625,-0.24096 -14.90625,14.40626 0,14.6472 0,24.21875 0,24.21875 0,0 -2.26318,14.65625 27.031252,14.65625 z m 14.75,-8.46875 c -2.66143,0 -4.8125,-2.15107 -4.8125,-4.8125 0,-2.66143 2.15107,-4.8125 4.8125,-4.8125 2.66143,0 4.8125,2.15107 4.8125,4.8125 1e-5,2.66143 -2.15107,4.8125 -4.8125,4.8125 z"
         id="path8620"
         inkscape:connector-curvature="0" />
    </g>
  </g>
  <path
     inkscape:connector-curvature="0"
     id="path5290"
     d="m 76.25385,248.88048 0.86652,32.92796 24.26271,8.66525 24.26271,6.93221 20.79662,3.4661 31.19491,0 45.92585,-10.39831 28.59535,-23.39618 6.9322,-28.59534 -1.73305,-34.66103 -10.39831,-25.12923 -17.33051,-17.33051 -26.86229,-10.39831 -26.86229,-7.79873 -28.59534,-6.06568 -23.39618,-10.3983 -9.53178,-13.86441 9.53178,-32.927959 32.06144,-15.597458 30.32839,1.733051 7.79873,-0.866525 23.39618,6.065678 24.26272,11.264828 3.46611,-5.19915 -0.86653,-32.061441 -41.59323,-11.264831 -38.12712,-3.466101 -25.99576,1.73305 -26.86229,9.53178 -14.73093,8.665255 -11.26483,11.26483 -6.9322,12.997882 -3.46611,12.997878 -0.86652,12.997883 0.86652,16.46398 6.06568,18.19704 12.99788,19.93008 25.99576,14.73093 28.59535,9.53178 23.39618,4.33263 19.06356,6.06567 20.79661,13.86441 6.93221,22.52967 -5.19916,19.06356 -14.73093,13.86441 -12.13135,4.33263 -1.73306,1.73304 -15.59746,1.73306 -13.8644,0.86652 -11.26484,0 -16.46398,-3.4661 -13.8644,-4.33263 -18.19704,-6.06567 -10.3983,-5.19915 -7.79873,-4.33263 z"
     style="fill:url(#linearGradient5338);fill-opacity:1;fill-rule:nonzero;stroke:#000000;stroke-width:0;stroke-linecap:butt;stroke-linejoin:miter;stroke-miterlimit:4;stroke-opacity:1;stroke-dasharray:none" />
  <path
     inkscape:connector-curvature="0"
     id="path5236"
     d="m 76.25385,248.88048 0.86653,32.92796 24.2627,8.66526 24.26272,6.9322 20.79661,3.4661 31.19491,0 45.92585,-10.3983 28.59534,-23.39619 6.93221,-28.59534 -1.73306,-34.66102 -10.3983,-25.12923 -17.33051,-17.33051 -26.86229,-10.3983 -26.86228,-7.79873 -28.59535,-6.06568 -23.39618,-10.3983 -9.53178,-13.86441 9.53178,-32.927968 32.06144,-15.597459 30.32839,1.733051 7.79873,-0.866525 23.39618,6.065678 24.26271,11.264828 3.46611,-5.19915 -0.86653,-32.061441 -41.59322,-11.26483 -38.12712,-3.466102 -25.99576,1.73305 -26.86228,9.53178 -14.73094,8.665255 -11.26483,11.26483 -6.9322,12.997882 -3.46611,12.997878 -0.86652,12.997893 0.86652,16.46397 6.06568,18.19704 12.99788,19.93008 25.99576,14.73094 28.59535,9.53177 23.39618,4.33263 19.06356,6.06568 20.79661,13.8644 6.93221,22.52967 -5.19915,19.06356 -14.73094,13.8644 -12.13135,4.33263 -1.73306,1.73305 -15.59745,1.73305 -13.86441,0.86652 -11.26483,0 -16.46399,-3.46609 -13.8644,-4.33264 -18.19704,-6.06567 -10.3983,-5.19915 -7.79873,-4.33263 z"
     style="fill:url(#linearGradient5314);fill-opacity:1;fill-rule:evenodd;stroke:#000000;stroke-width:0;stroke-linecap:butt;stroke-linejoin:miter;stroke-miterlimit:4;stroke-opacity:1;stroke-dasharray:none;opacity:0.50819672000000005" />
  <path
     sodipodi:type="arc"
     style="fill:none;fill-opacity:1;fill-rule:nonzero;stroke:#000000;stroke-width:5.19999980999999956;stroke-miterlimit:4;stroke-opacity:1;stroke-dasharray:none"
     id="path2993"
     sodipodi:cx="61.198357"
     sodipodi:cy="282.16235"
     sodipodi:rx="204.17505"
     sodipodi:ry="204.17505"
     d="m 265.37341,282.16235 a 204.17505,204.17505 0 1 1 -6.4e-4,-0.50754"
     transform="matrix(0.80087033,0,0,0.80087032,116.58805,-60.375454)"
     sodipodi:start="0"
     sodipodi:end="6.2806995"
     sodipodi:open="true" />
  <path
     style="fill:url(#radialGradient5244);stroke:#000000;stroke-width:0;stroke-linecap:butt;stroke-linejoin:miter;stroke-opacity:1;fill-opacity:1;stroke-miterlimit:4;stroke-dasharray:none;fill-rule:evenodd"
     d="m 95.317797,311.10011 1.083157,41.15995 30.328386,10.83157 30.32839,8.66526 25.99577,4.33262 38.99364,0 57.40731,-12.99788 35.74417,-29.24523 8.66526,-35.74418 -2.16632,-43.32627 -12.99788,-31.41154 -21.66313,-21.66314 -33.57786,-12.99788 -33.57786,-9.74841 -35.74418,-7.5821 -29.24523,-12.99788 -11.91472,-17.33051 11.91472,-41.159957 40.0768,-19.496823 37.91049,2.166314 9.74841,-1.083157 29.24523,7.582098 30.32839,14.081035 4.33263,-6.498938 -1.08316,-40.076801 -51.99152,-14.081038 -47.6589,-4.332627 -32.4947,2.166313 -33.57786,11.914725 -18.41367,10.831568 -14.08104,14.081038 -8.665253,16.247352 -4.332627,16.247348 -1.083157,16.24736 1.083157,20.57997 7.5821,22.7463 16.24735,24.9126 32.4947,18.41367 35.74418,11.91472 29.24523,5.41579 23.82945,7.58209 25.99576,17.33051 8.66526,28.16208 -6.49894,23.82945 -18.41367,17.33051 -15.16419,5.41578 -2.16632,2.16631 -19.49682,2.16632 -17.33051,1.08315 -14.08104,0 -20.57998,-4.33262 -17.3305,-5.41579 -22.7463,-7.58209 -12.99788,-6.49894 -9.748409,-5.41579 z"
     id="path3754"
     inkscape:connector-curvature="0"
     transform="scale(0.8,0.8)" />
  <g
     transform="matrix(0.1,0,0,-0.1,54.724998,377.72542)"
     id="g6"
     style="fill:#000000;stroke:none">
    <path
       d="m 1005,3483 c -239,-19 -428,-86 -569,-200 -86,-70 -42,-70 66,1 96,62 197,105 313,132 114,27 513,27 660,0 121,-21 326,-72 372,-91 l 33,-14 0,-171 0,-170 -57,29 c -88,44 -241,98 -361,129 -97,24 -124,27 -292,27 -145,0 -198,-4 -248,-17 -151,-42 -250,-115 -304,-226 -31,-63 -33,-72 -33,-177 0,-95 4,-116 24,-159 64,-128 161,-174 541,-251 252,-52 352,-80 465,-134 218,-104 327,-228 387,-438 31,-109 31,-322 0,-436 C 1943,1102 1798,949 1575,865 1337,775 989,760 665,825 540,850 328,908 266,934 c -20,8 -36,11 -36,7 0,-5 13,-14 30,-21 16,-7 36,-23 44,-36 11,-16 41,-31 98,-49 82,-26 220,-62 268,-70 14,-2 36,-7 50,-10 153,-35 522,-46 690,-21 371,56 604,244 666,536 22,104 14,372 -15,483 -33,127 -92,230 -186,323 -69,69 -98,90 -194,137 -139,70 -219,95 -496,152 -358,74 -458,116 -512,215 -22,40 -24,54 -19,119 12,178 137,309 351,366 35,10 119,19 200,22 126,5 151,2 250,-21 123,-28 214,-58 324,-105 154,-65 167,-49 157,195 -4,91 -9,171 -13,179 -7,21 -170,70 -343,105 -197,39 -419,56 -575,43 z"
       id="path8"
       inkscape:connector-curvature="0" />
    <path
       d="m 203,2643 c -30,-11 -3,-164 47,-269 63,-132 157,-218 325,-299 126,-62 217,-89 464,-140 258,-53 353,-84 434,-139 101,-69 147,-159 147,-288 0,-159 -108,-303 -264,-354 -69,-22 -79,-34 -29,-34 87,0 255,117 303,210 78,153 32,392 -94,492 -98,78 -193,111 -473,168 -313,64 -477,122 -604,216 -112,82 -188,207 -217,357 -9,48 -19,87 -22,86 -3,0 -11,-3 -17,-6 z"
       id="path10"
       inkscape:connector-curvature="0" />
    <path
       d="m 206,1324 c -23,-22 -23,-204 -1,-204 9,0 20,-10 25,-22 6,-16 9,12 9,90 1,61 3,112 4,112 2,0 47,-22 100,-49 128,-65 324,-129 480,-155 31,-6 37,-4 36,11 0,11 -3,13 -6,6 -6,-17 -26,-17 -21,-1 3,8 -32,21 -101,39 -123,31 -222,69 -361,139 -105,53 -139,60 -164,34 z"
       id="path12"
       inkscape:connector-curvature="0" />
  </g>
</svg>
